apb_improved.vcd
$date
	Sun Dec 21 20:00:44 2025
$end
$version
	Icarus Verilog
$end
$timescale
	1ps
$end
$scope module tb_apb_system $end
$var wire 1 ! PREADY $end
$var wire 1 " PWRITE $end
$var wire 32 # PWDATA [31:0] $end
$var wire 1 $ PSEL $end
$var wire 32 % PRDATA [31:0] $end
$var wire 1 & PENABLE $end
$var wire 32 ' PADDR [31:0] $end
$var parameter 32 ( CLK_PERIOD $end
$var parameter 32 ) TIMEOUT_CYCLES $end
$var reg 1 * PCLK $end
$var reg 1 + PRESETn $end
$var reg 32 , addr_in [31:0] $end
$var reg 2 - mux [1:0] $end
$var reg 32 . rand_addr [31:0] $end
$var reg 32 / rand_data [31:0] $end
$var reg 32 0 rdata [31:0] $end
$var reg 32 1 wdata_in [31:0] $end
$var integer 32 2 errors [31:0] $end
$var integer 32 3 tests_run [31:0] $end
$scope module u_master $end
$var wire 1 * PCLK $end
$var wire 1 ! PREADY $end
$var wire 1 + PRESETn $end
$var wire 32 4 addr_in [31:0] $end
$var wire 2 5 mux [1:0] $end
$var wire 32 6 wdata_in [31:0] $end
$var wire 32 7 PRDATA [31:0] $end
$var reg 32 8 PADDR [31:0] $end
$var reg 1 & PENABLE $end
$var reg 1 $ PSEL $end
$var reg 32 9 PWDATA [31:0] $end
$var reg 1 " PWRITE $end
$var reg 32 : addr_reg [31:0] $end
$var reg 2 ; current_state [1:0] $end
$var reg 2 < next_state [1:0] $end
$var reg 32 = rdata_reg [31:0] $end
$var reg 32 > wdata_reg [31:0] $end
$var reg 1 ? write_reg $end
$upscope $end
$scope module u_slave $end
$var wire 32 @ PADDR [31:0] $end
$var wire 1 * PCLK $end
$var wire 1 & PENABLE $end
$var wire 1 ! PREADY $end
$var wire 1 + PRESETn $end
$var wire 1 $ PSEL $end
$var wire 32 A PWDATA [31:0] $end
$var wire 1 " PWRITE $end
$var wire 2 B addr_idx [1:0] $end
$var reg 32 C PRDATA [31:0] $end
$upscope $end
$scope begin $ivl_for_loop0 $end
$var integer 32 D i [31:0] $end
$upscope $end
$scope task apb_read $end
$upscope $end
$scope task apb_write $end
$upscope $end
$scope task check_result $end
$var reg 32 E actual [31:0] $end
$var reg 32 F addr [31:0] $end
$var reg 32 G expected [31:0] $end
$upscope $end
$scope task wait_apb_done $end
$upscope $end
$upscope $end
$enddefinitions $end
$comment Show the parameter values. $end
$dumpall
b1100100 )
b1010 (
$end
#0
$dumpvars
bx G
bx F
bx E
b0 D
b0 C
b0 B
b0 A
b0 @
0?
b0 >
b0 =
b0 <
b0 ;
b0 :
b0 9
b0 8
b0 7
b0 6
b0 5
b0 4
b0 3
b0 2
b0 1
bx 0
bx /
bx .
b0 -
b0 ,
0+
0*
b0 '
0&
b0 %
0$
b0 #
0"
1!
$end
#5000
1*
#10000
0*
#15000
1*
#20000
0*
#25000
1*
#30000
0*
#35000
1*
#40000
0*
#45000
1*
#50000
1+
0*
#55000
b1 <
b11 -
b11 5
b11011110101011011011111011101111 1
b11011110101011011011111011101111 6
1*
#60000
0*
#65000
1$
1"
b11011110101011011011111011101111 #
b11011110101011011011111011101111 9
b11011110101011011011111011101111 A
b10 <
b11011110101011011011111011101111 >
1?
b1 ;
b0 -
b0 5
1*
#70000
0*
#75000
1&
1$
b0 <
b10 ;
1*
#80000
0*
#85000
0&
0$
b0 ;
1*
#90000
0*
#95000
1*
#100000
0*
#105000
b1 <
b1 -
b1 5
1*
#110000
0*
#115000
b11011110101011011011111011101111 %
b11011110101011011011111011101111 7
b11011110101011011011111011101111 C
1$
0"
b10 <
b1 ;
0?
b0 -
b0 5
1*
#120000
0*
#125000
1&
1$
b0 <
b10 ;
1*
#130000
0*
#135000
b0 %
b0 7
b0 C
0&
0$
b0 ;
b11011110101011011011111011101111 =
1*
#140000
0*
#145000
b1 3
b11011110101011011011111011101111 E
b11011110101011011011111011101111 G
b0 F
b11011110101011011011111011101111 0
1*
#150000
0*
#155000
b1 <
b11 -
b11 5
b11001010111111101011101010111110 1
b11001010111111101011101010111110 6
b100 ,
b100 4
1*
#160000
0*
#165000
b1 B
1$
b100 '
b100 8
b100 @
1"
b11001010111111101011101010111110 #
b11001010111111101011101010111110 9
b11001010111111101011101010111110 A
b10 <
b100 :
b11001010111111101011101010111110 >
1?
b1 ;
b0 -
b0 5
1*
#170000
0*
#175000
1&
1$
b0 <
b10 ;
1*
#180000
0*
#185000
0&
0$
b0 ;
1*
#190000
0*
#195000
1*
#200000
0*
#205000
b1 <
b1 -
b1 5
1*
#210000
0*
#215000
b11001010111111101011101010111110 %
b11001010111111101011101010111110 7
b11001010111111101011101010111110 C
1$
0"
b10 <
b1 ;
0?
b0 -
b0 5
1*
#220000
0*
#225000
1&
1$
b0 <
b10 ;
1*
#230000
0*
#235000
b0 %
b0 7
b0 C
0&
0$
b0 ;
b11001010111111101011101010111110 =
1*
#240000
0*
#245000
b1000000100010010101111010000001 /
b1000 .
b10 3
b11001010111111101011101010111110 E
b11001010111111101011101010111110 G
b100 F
b11001010111111101011101010111110 0
1*
#250000
0*
#255000
b1 <
b11 -
b11 5
b1000000100010010101111010000001 1
b1000000100010010101111010000001 6
b1000 ,
b1000 4
1*
#260000
0*
#265000
b10 B
1$
b1000 '
b1000 8
b1000 @
1"
b1000000100010010101111010000001 #
b1000000100010010101111010000001 9
b1000000100010010101111010000001 A
b10 <
b1000 :
b1000000100010010101111010000001 >
1?
b1 ;
b0 -
b0 5
1*
#270000
0*
#275000
1&
1$
b0 <
b10 ;
1*
#280000
0*
#285000
0&
0$
b0 ;
1*
#290000
0*
#295000
1*
#300000
0*
#305000
b1 <
b1 -
b1 5
1*
#310000
0*
#315000
b1000000100010010101111010000001 %
b1000000100010010101111010000001 7
b1000000100010010101111010000001 C
1$
0"
b10 <
b1 ;
0?
b0 -
b0 5
1*
#320000
0*
#325000
1&
1$
b0 <
b10 ;
1*
#330000
0*
#335000
b0 %
b0 7
b0 C
0&
0$
b0 ;
b1000000100010010101111010000001 =
1*
#340000
0*
#345000
b110001111100000101011001100011 /
b0 .
b1 D
b11 3
b1000000100010010101111010000001 E
b1000000100010010101111010000001 G
b1000 F
b1000000100010010101111010000001 0
1*
#350000
0*
#355000
b1 <
b11 -
b11 5
b110001111100000101011001100011 1
b110001111100000101011001100011 6
b0 ,
b0 4
1*
#360000
0*
#365000
b0 B
1$
b0 '
b0 8
b0 @
1"
b110001111100000101011001100011 #
b110001111100000101011001100011 9
b110001111100000101011001100011 A
b10 <
b0 :
b110001111100000101011001100011 >
1?
b1 ;
b0 -
b0 5
1*
#370000
0*
#375000
1&
1$
b0 <
b10 ;
1*
#380000
0*
#385000
0&
0$
b0 ;
1*
#390000
0*
#395000
1*
#400000
0*
#405000
b1 <
b1 -
b1 5
1*
#410000
0*
#415000
b110001111100000101011001100011 %
b110001111100000101011001100011 7
b110001111100000101011001100011 C
1$
0"
b10 <
b1 ;
0?
b0 -
b0 5
1*
#420000
0*
#425000
1&
1$
b0 <
b10 ;
1*
#430000
0*
#435000
b0 %
b0 7
b0 C
0&
0$
b0 ;
b110001111100000101011001100011 =
1*
#440000
0*
#445000
b11000110110111111001100110001101 /
b1000 .
b10 D
b100 3
b110001111100000101011001100011 E
b110001111100000101011001100011 G
b0 F
b110001111100000101011001100011 0
1*
#450000
0*
#455000
b1 <
b11 -
b11 5
b11000110110111111001100110001101 1
b11000110110111111001100110001101 6
b1000 ,
b1000 4
1*
#460000
0*
#465000
b10 B
1$
b1000 '
b1000 8
b1000 @
1"
b11000110110111111001100110001101 #
b11000110110111111001100110001101 9
b11000110110111111001100110001101 A
b10 <
b1000 :
b11000110110111111001100110001101 >
1?
b1 ;
b0 -
b0 5
1*
#470000
0*
#475000
1&
1$
b0 <
b10 ;
1*
#480000
0*
#485000
0&
0$
b0 ;
1*
#490000
0*
#495000
1*
#500000
0*
#505000
b1 <
b1 -
b1 5
1*
#510000
0*
#515000
b11000110110111111001100110001101 %
b11000110110111111001100110001101 7
b11000110110111111001100110001101 C
1$
0"
b10 <
b1 ;
0?
b0 -
b0 5
1*
#520000
0*
#525000
1&
1$
b0 <
b10 ;
1*
#530000
0*
#535000
b0 %
b0 7
b0 C
0&
0$
b0 ;
b11000110110111111001100110001101 =
1*
#540000
0*
#545000
b1001001101110101001000010010 /
b0 .
b11 D
b101 3
b11000110110111111001100110001101 E
b11000110110111111001100110001101 G
b1000 F
b11000110110111111001100110001101 0
1*
#550000
0*
#555000
b1 <
b11 -
b11 5
b1001001101110101001000010010 1
b1001001101110101001000010010 6
b0 ,
b0 4
1*
#560000
0*
#565000
b0 B
1$
b0 '
b0 8
b0 @
1"
b1001001101110101001000010010 #
b1001001101110101001000010010 9
b1001001101110101001000010010 A
b10 <
b0 :
b1001001101110101001000010010 >
1?
b1 ;
b0 -
b0 5
1*
#570000
0*
#575000
1&
1$
b0 <
b10 ;
1*
#580000
0*
#585000
0&
0$
b0 ;
1*
#590000
0*
#595000
1*
#600000
0*
#605000
b1 <
b1 -
b1 5
1*
#610000
0*
#615000
b1001001101110101001000010010 %
b1001001101110101001000010010 7
b1001001101110101001000010010 C
1$
0"
b10 <
b1 ;
0?
b0 -
b0 5
1*
#620000
0*
#625000
1&
1$
b0 <
b10 ;
1*
#630000
0*
#635000
b0 %
b0 7
b0 C
0&
0$
b0 ;
b1001001101110101001000010010 =
1*
#640000
0*
#645000
b10000110110101111100110100001101 /
b1000 .
b100 D
b110 3
b1001001101110101001000010010 E
b1001001101110101001000010010 G
b0 F
b1001001101110101001000010010 0
1*
#650000
0*
#655000
b1 <
b11 -
b11 5
b10000110110101111100110100001101 1
b10000110110101111100110100001101 6
b1000 ,
b1000 4
1*
#660000
0*
#665000
b10 B
1$
b1000 '
b1000 8
b1000 @
1"
b10000110110101111100110100001101 #
b10000110110101111100110100001101 9
b10000110110101111100110100001101 A
b10 <
b1000 :
b10000110110101111100110100001101 >
1?
b1 ;
b0 -
b0 5
1*
#670000
0*
#675000
1&
1$
b0 <
b10 ;
1*
#680000
0*
#685000
0&
0$
b0 ;
1*
#690000
0*
#695000
1*
#700000
0*
#705000
b1 <
b1 -
b1 5
1*
#710000
0*
#715000
b10000110110101111100110100001101 %
b10000110110101111100110100001101 7
b10000110110101111100110100001101 C
1$
0"
b10 <
b1 ;
0?
b0 -
b0 5
1*
#720000
0*
#725000
1&
1$
b0 <
b10 ;
1*
#730000
0*
#735000
b0 %
b0 7
b0 C
0&
0$
b0 ;
b10000110110101111100110100001101 =
1*
#740000
0*
#745000
b10011110100011011100110100111101 /
b101 D
b111 3
b10000110110101111100110100001101 E
b10000110110101111100110100001101 G
b1000 F
b10000110110101111100110100001101 0
1*
#750000
0*
#755000
b1 <
b11 -
b11 5
b10011110100011011100110100111101 1
b10011110100011011100110100111101 6
1*
#760000
0*
#765000
1$
1"
b10011110100011011100110100111101 #
b10011110100011011100110100111101 9
b10011110100011011100110100111101 A
b10 <
b10011110100011011100110100111101 >
1?
b1 ;
b0 -
b0 5
1*
#770000
0*
#775000
1&
1$
b0 <
b10 ;
1*
#780000
0*
#785000
0&
0$
b0 ;
1*
#790000
0*
#795000
1*
#800000
0*
#805000
b1 <
b1 -
b1 5
1*
#810000
0*
#815000
b10011110100011011100110100111101 %
b10011110100011011100110100111101 7
b10011110100011011100110100111101 C
1$
0"
b10 <
b1 ;
0?
b0 -
b0 5
1*
#820000
0*
#825000
1&
1$
b0 <
b10 ;
1*
#830000
0*
#835000
b0 %
b0 7
b0 C
0&
0$
b0 ;
b10011110100011011100110100111101 =
1*
#840000
0*
#845000
b11000110001011011111011110001100 /
b1100 .
b110 D
b1000 3
b10011110100011011100110100111101 E
b10011110100011011100110100111101 G
b10011110100011011100110100111101 0
1*
#850000
0*
#855000
b1 <
b11 -
b11 5
b11000110001011011111011110001100 1
b11000110001011011111011110001100 6
b1100 ,
b1100 4
1*
#860000
0*
#865000
b11 B
1$
b1100 '
b1100 8
b1100 @
1"
b11000110001011011111011110001100 #
b11000110001011011111011110001100 9
b11000110001011011111011110001100 A
b10 <
b1100 :
b11000110001011011111011110001100 >
1?
b1 ;
b0 -
b0 5
1*
#870000
0*
#875000
1&
1$
b0 <
b10 ;
1*
#880000
0*
#885000
0&
0$
b0 ;
1*
#890000
0*
#895000
1*
#900000
0*
#905000
b1 <
b1 -
b1 5
1*
#910000
0*
#915000
b11000110001011011111011110001100 %
b11000110001011011111011110001100 7
b11000110001011011111011110001100 C
1$
0"
b10 <
b1 ;
0?
b0 -
b0 5
1*
#920000
0*
#925000
1&
1$
b0 <
b10 ;
1*
#930000
0*
#935000
b0 %
b0 7
b0 C
0&
0$
b0 ;
b11000110001011011111011110001100 =
1*
#940000
0*
#945000
b1100011001101110010010011000110 /
b111 D
b1001 3
b11000110001011011111011110001100 E
b11000110001011011111011110001100 G
b1100 F
b11000110001011011111011110001100 0
1*
#950000
0*
#955000
b1 <
b11 -
b11 5
b1100011001101110010010011000110 1
b1100011001101110010010011000110 6
1*
#960000
0*
#965000
1$
1"
b1100011001101110010010011000110 #
b1100011001101110010010011000110 9
b1100011001101110010010011000110 A
b10 <
b1100011001101110010010011000110 >
1?
b1 ;
b0 -
b0 5
1*
#970000
0*
#975000
1&
1$
b0 <
b10 ;
1*
#980000
0*
#985000
0&
0$
b0 ;
1*
#990000
0*
#995000
1*
#1000000
0*
#1005000
b1 <
b1 -
b1 5
1*
#1010000
0*
#1015000
b1100011001101110010010011000110 %
b1100011001101110010010011000110 7
b1100011001101110010010011000110 C
1$
0"
b10 <
b1 ;
0?
b0 -
b0 5
1*
#1020000
0*
#1025000
1&
1$
b0 <
b10 ;
1*
#1030000
0*
#1035000
b0 %
b0 7
b0 C
0&
0$
b0 ;
b1100011001101110010010011000110 =
1*
#1040000
0*
#1045000
b1010101000100111101001010101010 /
b100 .
b1000 D
b1010 3
b1100011001101110010010011000110 E
b1100011001101110010010011000110 G
b1100011001101110010010011000110 0
1*
#1050000
0*
#1055000
b1 <
b11 -
b11 5
b1010101000100111101001010101010 1
b1010101000100111101001010101010 6
b100 ,
b100 4
1*
#1060000
0*
#1065000
b1 B
1$
b100 '
b100 8
b100 @
1"
b1010101000100111101001010101010 #
b1010101000100111101001010101010 9
b1010101000100111101001010101010 A
b10 <
b100 :
b1010101000100111101001010101010 >
1?
b1 ;
b0 -
b0 5
1*
#1070000
0*
#1075000
1&
1$
b0 <
b10 ;
1*
#1080000
0*
#1085000
0&
0$
b0 ;
1*
#1090000
0*
#1095000
1*
#1100000
0*
#1105000
b1 <
b1 -
b1 5
1*
#1110000
0*
#1115000
b1010101000100111101001010101010 %
b1010101000100111101001010101010 7
b1010101000100111101001010101010 C
1$
0"
b10 <
b1 ;
0?
b0 -
b0 5
1*
#1120000
0*
#1125000
1&
1$
b0 <
b10 ;
1*
#1130000
0*
#1135000
b0 %
b0 7
b0 C
0&
0$
b0 ;
b1010101000100111101001010101010 =
1*
#1140000
0*
#1145000
b111011110100100111001001110111 /
b1100 .
b1001 D
b1011 3
b1010101000100111101001010101010 E
b1010101000100111101001010101010 G
b100 F
b1010101000100111101001010101010 0
1*
#1150000
0*
#1155000
b1 <
b11 -
b11 5
b111011110100100111001001110111 1
b111011110100100111001001110111 6
b1100 ,
b1100 4
1*
#1160000
0*
#1165000
b11 B
1$
b1100 '
b1100 8
b1100 @
1"
b111011110100100111001001110111 #
b111011110100100111001001110111 9
b111011110100100111001001110111 A
b10 <
b1100 :
b111011110100100111001001110111 >
1?
b1 ;
b0 -
b0 5
1*
#1170000
0*
#1175000
1&
1$
b0 <
b10 ;
1*
#1180000
0*
#1185000
0&
0$
b0 ;
1*
#1190000
0*
#1195000
1*
#1200000
0*
#1205000
b1 <
b1 -
b1 5
1*
#1210000
0*
#1215000
b111011110100100111001001110111 %
b111011110100100111001001110111 7
b111011110100100111001001110111 C
1$
0"
b10 <
b1 ;
0?
b0 -
b0 5
1*
#1220000
0*
#1225000
1&
1$
b0 <
b10 ;
1*
#1230000
0*
#1235000
b0 %
b0 7
b0 C
0&
0$
b0 ;
b111011110100100111001001110111 =
1*
#1240000
0*
#1245000
b11000111111011001101101110001111 /
b0 .
b1010 D
b1100 3
b111011110100100111001001110111 E
b111011110100100111001001110111 G
b1100 F
b111011110100100111001001110111 0
1*
#1250000
0*
#1255000
b1 <
b11 -
b11 5
b11000111111011001101101110001111 1
b11000111111011001101101110001111 6
b0 ,
b0 4
1*
#1260000
0*
#1265000
b0 B
1$
b0 '
b0 8
b0 @
1"
b11000111111011001101101110001111 #
b11000111111011001101101110001111 9
b11000111111011001101101110001111 A
b10 <
b0 :
b11000111111011001101101110001111 >
1?
b1 ;
b0 -
b0 5
1*
#1270000
0*
#1275000
1&
1$
b0 <
b10 ;
1*
#1280000
0*
#1285000
0&
0$
b0 ;
1*
#1290000
0*
#1295000
1*
#1300000
0*
#1305000
b1 <
b1 -
b1 5
1*
#1310000
0*
#1315000
b11000111111011001101101110001111 %
b11000111111011001101101110001111 7
b11000111111011001101101110001111 C
1$
0"
b10 <
b1 ;
0?
b0 -
b0 5
1*
#1320000
0*
#1325000
1&
1$
b0 <
b10 ;
1*
#1330000
0*
#1335000
b0 %
b0 7
b0 C
0&
0$
b0 ;
b11000111111011001101101110001111 =
1*
#1340000
0*
#1345000
b1100111011101101001011011001110 /
b1100 .
b1011 D
b1101 3
b11000111111011001101101110001111 E
b11000111111011001101101110001111 G
b0 F
b11000111111011001101101110001111 0
1*
#1350000
0*
#1355000
b1 <
b11 -
b11 5
b1100111011101101001011011001110 1
b1100111011101101001011011001110 6
b1100 ,
b1100 4
1*
#1360000
0*
#1365000
b11 B
1$
b1100 '
b1100 8
b1100 @
1"
b1100111011101101001011011001110 #
b1100111011101101001011011001110 9
b1100111011101101001011011001110 A
b10 <
b1100 :
b1100111011101101001011011001110 >
1?
b1 ;
b0 -
b0 5
1*
#1370000
0*
#1375000
1&
1$
b0 <
b10 ;
1*
#1380000
0*
#1385000
0&
0$
b0 ;
1*
#1390000
0*
#1395000
1*
#1400000
0*
#1405000
b1 <
b1 -
b1 5
1*
#1410000
0*
#1415000
b1100111011101101001011011001110 %
b1100111011101101001011011001110 7
b1100111011101101001011011001110 C
1$
0"
b10 <
b1 ;
0?
b0 -
b0 5
1*
#1420000
0*
#1425000
1&
1$
b0 <
b10 ;
1*
#1430000
0*
#1435000
b0 %
b0 7
b0 C
0&
0$
b0 ;
b1100111011101101001011011001110 =
1*
#1440000
0*
#1445000
b1100010110010100100111011000101 /
b100 .
b1100 D
b1110 3
b1100111011101101001011011001110 E
b1100111011101101001011011001110 G
b1100 F
b1100111011101101001011011001110 0
1*
#1450000
0*
#1455000
b1 <
b11 -
b11 5
b1100010110010100100111011000101 1
b1100010110010100100111011000101 6
b100 ,
b100 4
1*
#1460000
0*
#1465000
b1 B
1$
b100 '
b100 8
b100 @
1"
b1100010110010100100111011000101 #
b1100010110010100100111011000101 9
b1100010110010100100111011000101 A
b10 <
b100 :
b1100010110010100100111011000101 >
1?
b1 ;
b0 -
b0 5
1*
#1470000
0*
#1475000
1&
1$
b0 <
b10 ;
1*
#1480000
0*
#1485000
0&
0$
b0 ;
1*
#1490000
0*
#1495000
1*
#1500000
0*
#1505000
b1 <
b1 -
b1 5
1*
#1510000
0*
#1515000
b1100010110010100100111011000101 %
b1100010110010100100111011000101 7
b1100010110010100100111011000101 C
1$
0"
b10 <
b1 ;
0?
b0 -
b0 5
1*
#1520000
0*
#1525000
1&
1$
b0 <
b10 ;
1*
#1530000
0*
#1535000
b0 %
b0 7
b0 C
0&
0$
b0 ;
b1100010110010100100111011000101 =
1*
#1540000
0*
#1545000
b1011110100011100010100010111101 /
b1000 .
b1101 D
b1111 3
b1100010110010100100111011000101 E
b1100010110010100100111011000101 G
b100 F
b1100010110010100100111011000101 0
1*
#1550000
0*
#1555000
b1 <
b11 -
b11 5
b1011110100011100010100010111101 1
b1011110100011100010100010111101 6
b1000 ,
b1000 4
1*
#1560000
0*
#1565000
b10 B
1$
b1000 '
b1000 8
b1000 @
1"
b1011110100011100010100010111101 #
b1011110100011100010100010111101 9
b1011110100011100010100010111101 A
b10 <
b1000 :
b1011110100011100010100010111101 >
1?
b1 ;
b0 -
b0 5
1*
#1570000
0*
#1575000
1&
1$
b0 <
b10 ;
1*
#1580000
0*
#1585000
0&
0$
b0 ;
1*
#1590000
0*
#1595000
1*
#1600000
0*
#1605000
b1 <
b1 -
b1 5
1*
#1610000
0*
#1615000
b1011110100011100010100010111101 %
b1011110100011100010100010111101 7
b1011110100011100010100010111101 C
1$
0"
b10 <
b1 ;
0?
b0 -
b0 5
1*
#1620000
0*
#1625000
1&
1$
b0 <
b10 ;
1*
#1630000
0*
#1635000
b0 %
b0 7
b0 C
0&
0$
b0 ;
b1011110100011100010100010111101 =
1*
#1640000
0*
#1645000
b110010101001110010011001100101 /
b0 .
b1110 D
b10000 3
b1011110100011100010100010111101 E
b1011110100011100010100010111101 G
b1000 F
b1011110100011100010100010111101 0
1*
#1650000
0*
#1655000
b1 <
b11 -
b11 5
b110010101001110010011001100101 1
b110010101001110010011001100101 6
b0 ,
b0 4
1*
#1660000
0*
#1665000
b0 B
1$
b0 '
b0 8
b0 @
1"
b110010101001110010011001100101 #
b110010101001110010011001100101 9
b110010101001110010011001100101 A
b10 <
b0 :
b110010101001110010011001100101 >
1?
b1 ;
b0 -
b0 5
1*
#1670000
0*
#1675000
1&
1$
b0 <
b10 ;
1*
#1680000
0*
#1685000
0&
0$
b0 ;
1*
#1690000
0*
#1695000
1*
#1700000
0*
#1705000
b1 <
b1 -
b1 5
1*
#1710000
0*
#1715000
b110010101001110010011001100101 %
b110010101001110010011001100101 7
b110010101001110010011001100101 C
1$
0"
b10 <
b1 ;
0?
b0 -
b0 5
1*
#1720000
0*
#1725000
1&
1$
b0 <
b10 ;
1*
#1730000
0*
#1735000
b0 %
b0 7
b0 C
0&
0$
b0 ;
b110010101001110010011001100101 =
1*
#1740000
0*
#1745000
b10000101011100111000011100001010 /
b1111 D
b10001 3
b110010101001110010011001100101 E
b110010101001110010011001100101 G
b0 F
b110010101001110010011001100101 0
1*
#1750000
0*
#1755000
b1 <
b11 -
b11 5
b10000101011100111000011100001010 1
b10000101011100111000011100001010 6
1*
#1760000
0*
#1765000
1$
1"
b10000101011100111000011100001010 #
b10000101011100111000011100001010 9
b10000101011100111000011100001010 A
b10 <
b10000101011100111000011100001010 >
1?
b1 ;
b0 -
b0 5
1*
#1770000
0*
#1775000
1&
1$
b0 <
b10 ;
1*
#1780000
0*
#1785000
0&
0$
b0 ;
1*
#1790000
0*
#1795000
1*
#1800000
0*
#1805000
b1 <
b1 -
b1 5
1*
#1810000
0*
#1815000
b10000101011100111000011100001010 %
b10000101011100111000011100001010 7
b10000101011100111000011100001010 C
1$
0"
b10 <
b1 ;
0?
b0 -
b0 5
1*
#1820000
0*
#1825000
1&
1$
b0 <
b10 ;
1*
#1830000
0*
#1835000
b0 %
b0 7
b0 C
0&
0$
b0 ;
b10000101011100111000011100001010 =
1*
#1840000
0*
#1845000
b10010000011001000010000100100000 /
b100 .
b10000 D
b10010 3
b10000101011100111000011100001010 E
b10000101011100111000011100001010 G
b10000101011100111000011100001010 0
1*
#1850000
0*
#1855000
b1 <
b11 -
b11 5
b10010000011001000010000100100000 1
b10010000011001000010000100100000 6
b100 ,
b100 4
1*
#1860000
0*
#1865000
b1 B
1$
b100 '
b100 8
b100 @
1"
b10010000011001000010000100100000 #
b10010000011001000010000100100000 9
b10010000011001000010000100100000 A
b10 <
b100 :
b10010000011001000010000100100000 >
1?
b1 ;
b0 -
b0 5
1*
#1870000
0*
#1875000
1&
1$
b0 <
b10 ;
1*
#1880000
0*
#1885000
0&
0$
b0 ;
1*
#1890000
0*
#1895000
1*
#1900000
0*
#1905000
b1 <
b1 -
b1 5
1*
#1910000
0*
#1915000
b10010000011001000010000100100000 %
b10010000011001000010000100100000 7
b10010000011001000010000100100000 C
1$
0"
b10 <
b1 ;
0?
b0 -
b0 5
1*
#1920000
0*
#1925000
1&
1$
b0 <
b10 ;
1*
#1930000
0*
#1935000
b0 %
b0 7
b0 C
0&
0$
b0 ;
b10010000011001000010000100100000 =
1*
#1940000
0*
#1945000
b1001110110011001100110010011101 /
b1100 .
b10001 D
b10011 3
b10010000011001000010000100100000 E
b10010000011001000010000100100000 G
b100 F
b10010000011001000010000100100000 0
1*
#1950000
0*
#1955000
b1 <
b11 -
b11 5
b1001110110011001100110010011101 1
b1001110110011001100110010011101 6
b1100 ,
b1100 4
1*
#1960000
0*
#1965000
b11 B
1$
b1100 '
b1100 8
b1100 @
1"
b1001110110011001100110010011101 #
b1001110110011001100110010011101 9
b1001110110011001100110010011101 A
b10 <
b1100 :
b1001110110011001100110010011101 >
1?
b1 ;
b0 -
b0 5
1*
#1970000
0*
#1975000
1&
1$
b0 <
b10 ;
1*
#1980000
0*
#1985000
0&
0$
b0 ;
1*
#1990000
0*
#1995000
1*
#2000000
0*
#2005000
b1 <
b1 -
b1 5
1*
#2010000
0*
#2015000
b1001110110011001100110010011101 %
b1001110110011001100110010011101 7
b1001110110011001100110010011101 C
1$
0"
b10 <
b1 ;
0?
b0 -
b0 5
1*
#2020000
0*
#2025000
1&
1$
b0 <
b10 ;
1*
#2030000
0*
#2035000
b0 %
b0 7
b0 C
0&
0$
b0 ;
b1001110110011001100110010011101 =
1*
#2040000
0*
#2045000
b1001100000111011100000010011 /
b100 .
b10010 D
b10100 3
b1001110110011001100110010011101 E
b1001110110011001100110010011101 G
b1100 F
b1001110110011001100110010011101 0
1*
#2050000
0*
#2055000
b1 <
b11 -
b11 5
b1001100000111011100000010011 1
b1001100000111011100000010011 6
b100 ,
b100 4
1*
#2060000
0*
#2065000
b1 B
1$
b100 '
b100 8
b100 @
1"
b1001100000111011100000010011 #
b1001100000111011100000010011 9
b1001100000111011100000010011 A
b10 <
b100 :
b1001100000111011100000010011 >
1?
b1 ;
b0 -
b0 5
1*
#2070000
0*
#2075000
1&
1$
b0 <
b10 ;
1*
#2080000
0*
#2085000
0&
0$
b0 ;
1*
#2090000
0*
#2095000
1*
#2100000
0*
#2105000
b1 <
b1 -
b1 5
1*
#2110000
0*
#2115000
b1001100000111011100000010011 %
b1001100000111011100000010011 7
b1001100000111011100000010011 C
1$
0"
b10 <
b1 ;
0?
b0 -
b0 5
1*
#2120000
0*
#2125000
1&
1$
b0 <
b10 ;
1*
#2130000
0*
#2135000
b0 %
b0 7
b0 C
0&
0$
b0 ;
b1001100000111011100000010011 =
1*
#2140000
0*
#2145000
b101001101001111101011001010011 /
b0 .
b10011 D
b10101 3
b1001100000111011100000010011 E
b1001100000111011100000010011 G
b100 F
b1001100000111011100000010011 0
1*
#2150000
0*
#2155000
b1 <
b11 -
b11 5
b101001101001111101011001010011 1
b101001101001111101011001010011 6
b0 ,
b0 4
1*
#2160000
0*
#2165000
b0 B
1$
b0 '
b0 8
b0 @
1"
b101001101001111101011001010011 #
b101001101001111101011001010011 9
b101001101001111101011001010011 A
b10 <
b0 :
b101001101001111101011001010011 >
1?
b1 ;
b0 -
b0 5
1*
#2170000
0*
#2175000
1&
1$
b0 <
b10 ;
1*
#2180000
0*
#2185000
0&
0$
b0 ;
1*
#2190000
0*
#2195000
1*
#2200000
0*
#2205000
b1 <
b1 -
b1 5
1*
#2210000
0*
#2215000
b101001101001111101011001010011 %
b101001101001111101011001010011 7
b101001101001111101011001010011 C
1$
0"
b10 <
b1 ;
0?
b0 -
b0 5
1*
#2220000
0*
#2225000
1&
1$
b0 <
b10 ;
1*
#2230000
0*
#2235000
b0 %
b0 7
b0 C
0&
0$
b0 ;
b101001101001111101011001010011 =
1*
#2240000
0*
#2245000
b10100 D
b10110 3
b101001101001111101011001010011 E
b101001101001111101011001010011 G
b0 F
b101001101001111101011001010011 0
1*
